Athlete Monitoring Data Analysis and Visualization • athletemonitoring
…
summary(prepared_data)
#> # A tibble: 60 × 11
#>    athlete       variable  level `Total entries` `Day entries` `Missing entries`
#>    <chr>         <chr>     <chr>           <int>         <int>             <dbl>
#>  1 Alan McDonald Training… <<<D…             571           363                 0
#>  2 Alan McDonald Training… Easy              571           363                 0
#>  3 Alan McDonald Training… Hard              571           363                 0
#>  4 Alan McDonald Training… Medi…             571           363                 0
#>  5 Alan McDonald Training… Very…             571           363                 0
#>  6 Alan McDonald Training… Very…             571           363                 0
#>  7 Ann Whitaker  Training… <<<D…             571           363                 0
#>  8 Ann Whitaker  Training… Easy              571           363                 0
#>  9 Ann Whitaker  Training… Hard              571           363                 0
#> 10 Ann Whitaker  Training… Medi…             571           363                 0
#> # ℹ 50 more rows
#> # ℹ 5 more variables: `Missing days` <int>, `Extended days` <int>,
#> #   `Start date` <dbl>, `Stop date` <dbl>, Proportion <dbl>
…
