S3 method for plotting prepare results — plot.athletemonitoring • athletemonitoring
…
summary(prepared_data)

#> # A tibble: 60 x 10
#>    athlete    variable   level    `Total entries` `Day entries` `Missing entrie…
#>    <chr>      <chr>      <fct>              <int>         <int>            <int>
#>  1 Alan McDo… Training … Very Ea…             571           363                0
#>  2 Alan McDo… Training … Easy                 571           363                0
#>  3 Alan McDo… Training … Medium               571           363                0
#>  4 Alan McDo… Training … Hard                 571           363                0
#>  5 Alan McDo… Training … Very Ha…             571           363                0
#>  6 Alan McDo… Training … <<<Day …             571           363                0
#>  7 Ann Whita… Training … Very Ea…             571           363                0
#>  8 Ann Whita… Training … Easy                 571           363                0
#>  9 Ann Whita… Training … Medium               571           363                0
#> 10 Ann Whita… Training … Hard                 571           363                0
#> # … with 50 more rows, and 4 more variables: Missing days <int>,
#> #   Start date <date>, Stop date <date>, Proportion <dbl>
…
